…
## 4. Charlotte-Mecklenburg lost students post-COVID

Enrollment decline hit North Carolina’s second-largest district.

``` r
cms_trend <- enr_demo %>%
  filter(district_id == "600", subgroup == "total_enrollment", grade_level == "TOTAL") %>%
  select(end_year, district_name, n_students) %>%
  mutate(change = n_students - lag(n_students))

stopifnot(nrow(cms_trend) > 0)
cms_trend
#> # A tibble: 891 × 4
#>    end_year district_name                 n_students change
#>       <dbl> <chr>                              <dbl>  <dbl>
#>  1     2018 Charlotte-Mecklenburg Schools       1082     NA
#>  2     2018 Charlotte-Mecklenburg Schools       1118     36
#>  3     2018 Charlotte-Mecklenburg Schools       3170   2052
#>  4     2018 Charlotte-Mecklenburg Schools        901  -2269
#>  5     2018 Charlotte-Mecklenburg Schools        517   -384
#>  6     2018 Charlotte-Mecklenburg Schools        535     18
#>  7     2018 Charlotte-Mecklenburg Schools       2626   2091
#>  8     2018 Charlotte-Mecklenburg Schools       1610  -1016
#>  9     2018 Charlotte-Mecklenburg Schools        938   -672
#> 10     2018 Charlotte-Mecklenburg Schools        533   -405
#> # ℹ 881 more rows
```
…
``` r
durham_demographics <- enr_demo %>%
  filter(district_id == "320", grade_level == "TOTAL",
         subgroup %in% c("white", "black", "hispanic", "asian")) %>%
  group_by(end_year) %>%
  mutate(
    total = sum(n_students),
    pct = round(n_students / total * 100, 1)
  ) %>%
  ungroup() %>%
  select(end_year, subgroup, n_students, pct)

stopifnot(nrow(durham_demographics) > 0)
durham_demographics
#> # A tibble: 833 × 4
#>    end_year subgroup n_students   pct
#>       <dbl> <chr>         <dbl> <dbl>
#>  1     2018 asian            15   0  
#>  2     2018 black           352   0.6
#>  3     2018 hispanic        228   0.4
#>  4     2018 white            30   0  
#>  5     2018 asian            10   0  
#>  6     2018 black           228   0.4
#>  7     2018 hispanic        203   0.3
#>  8     2018 white            70   0.1
#>  9     2018 black           153   0.2
#> 10     2018 hispanic        217   0.3
#> # ℹ 823 more rows
```
…
